…
```r
gt_version(all=TRUE)
#> [1] "2021-05-06"
```

## Simple Analysis

Geysers with the most recorded eruptions:

```r
print(n=20,
eruptions %>% group_by(geyser) %>% summarise(N=n()) %>% arrange(desc(N)))
#> # A tibble: 450 x 2
#>    geyser              N
#>    <chr>           <int>
#>  1 Old Faithful   184096
#>  2 Plume          143792
#>  3 Daisy           99807
#>  4 Little Cub      96889
#>  5 Lion            63418
#>  6 Grand           41475
#>  7 Aurum           35881
#>  8 Oblong          34080
#>  9 Fountain        27463
#> 10 Spouter         26981
#> 11 Riverside       26678
#> 12 Castle          25787
#> 13 Logbridge       23416
#> 14 Plate           21594
#> 15 Echinus         21330
#> 16 Depression      20668
#> 17 Turban          18885
#> 18 Great Fountain  18880
#> 19 Grotto          17533
#> 20 Jet             16368
#> # ... with 430 more rows
```
